- generic [ref=e2]: "{\"items\":[{\"id\":\"bad7adcd-3300-4f25-9bb1-b35845358dd8\",\"catalogId\":\"7e85ad6e-67f9-44e9-97a0-d0d5c6300ab5\",\"otherBrandId\":null,\"otherSubcategoryId\":null,\"name\":\"Frozen (PG) 2013 — Blu-ray\",\"slug\":\"disney-frozen-2013\",\"condition\":\"Pristine\",\"storage\":\"\",\"price\":4.99,\"comparePrice\":9.99,\"stock\":10,\"images\":[\"http://localhost:9000/ai-ecommerce/products/others/films/disney-frozen-2013.png?X-Amz-Algorithm=AWS4-HMAC-SHA256&X-Amz-Content-Sha256=UNSIGNED-PAYLOAD&X-Amz-Credential=minioadmin%2F20260604%2Fus-east-1%2Fs3%2Faws4_request&X-Amz-Date=20260604T153226Z&X-Amz-Expires=604800&X-Amz-Signature=cb431ade1f063839d0528165d1fe6a1398eed2dc442218b77e7ca458ddeac535&X-Amz-SignedHeaders=host&x-amz-checksum-mode=ENABLED&x-id=GetObject\"],\"specs\":{},\"description\":\"\",\"rating\":0,\"reviewCount\":0,\"isActive\":true,\"createdAt\":\"2026-06-04T15:27:53.749Z\",\"updatedAt\":\"2026-06-04T15:27:53.749Z\",\"brand\":\"Disney\",\"model\":\"Frozen (PG) 2013 — Blu-ray\",\"category\":\"Films\"},{\"id\":\"af332dd6-5462-4214-9588-92bb5278f267\",\"catalogId\":\"094c2e5d-f6cd-4ab6-96c8-21b1e1b5f5fc\",\"otherBrandId\":null,\"otherSubcategoryId\":null,\"name\":\"Deadpool (15) 2016 — Blu-ray\",\"slug\":\"marvel-deadpool-2016\",\"condition\":\"Pristine\",\"storage\":\"\",\"price\":5.99,\"comparePrice\":12.99,\"stock\":10,\"images\":[\"http://localhost:9000/ai-ecommerce/products/others/films/marvel-deadpool-2016.png?X-Amz-Algorithm=AWS4-HMAC-SHA256&X-Amz-Content-Sha256=UNSIGNED-PAYLOAD&X-Amz-Credential=minioadmin%2F20260604%2Fus-east-1%2Fs3%2Faws4_request&X-Amz-Date=20260604T153226Z&X-Amz-Expires=604800&X-Amz-Signature=e3af036182be55592730e55cd028411228092a382e09687eec7165850d28aeae&X-Amz-SignedHeaders=host&x-amz-checksum-mode=ENABLED&x-id=GetObject\"],\"specs\":{},\"description\":\"\",\"rating\":0,\"reviewCount\":0,\"isActive\":true,\"createdAt\":\"2026-06-04T15:27:53.675Z\",\"updatedAt\":\"2026-06-04T15:27:53.675Z\",\"brand\":\"Marvel\",\"model\":\"Deadpool (15) 2016 — Blu-ray\",\"category\":\"Films\"},{\"id\":\"b9c078b1-4902-493f-9624-f4aa5290e017\",\"catalogId\":\"e3d5941f-4fa5-4236-b63d-ae5adc55811b\",\"otherBrandId\":null,\"otherSubcategoryId\":null,\"name\":\"Call of Duty: Black Ops 4\",\"slug\":\"activision-call-of-duty-black-ops-4\",\"condition\":\"Pristine\",\"storage\":\"\",\"price\":9.99,\"comparePrice\":29.99,\"stock\":10,\"images\":[\"http://localhost:9000/ai-ecommerce/products/others/games/activision-call-of-duty-black-ops-4.png?X-Amz-Algorithm=AWS4-HMAC-SHA256&X-Amz-Content-Sha256=UNSIGNED-PAYLOAD&X-Amz-Credential=minioadmin%2F20260604%2Fus-east-1%2Fs3%2Faws4_request&X-Amz-Date=20260604T153226Z&X-Amz-Expires=604800&X-Amz-Signature=9193853f424d15581417d731b782913e9e59312f86b61c40869fec9bc9d13e35&X-Amz-SignedHeaders=host&x-amz-checksum-mode=ENABLED&x-id=GetObject\"],\"specs\":{},\"description\":\"\",\"rating\":0,\"reviewCount\":0,\"isActive\":true,\"createdAt\":\"2026-06-04T15:27:53.595Z\",\"updatedAt\":\"2026-06-04T15:27:53.595Z\",\"brand\":\"Activision\",\"model\":\"Call of Duty: Black Ops 4\",\"category\":\"Games\"},{\"id\":\"74d23b0f-2e58-498b-9b42-14c32a233337\",\"catalogId\":\"d22ed767-ed01-4523-91de-595f5e92a9c5\",\"otherBrandId\":null,\"otherSubcategoryId\":null,\"name\":\"Battlefield 6\",\"slug\":\"ea-battlefield-6\",\"condition\":\"Pristine\",\"storage\":\"\",\"price\":34.99,\"comparePrice\":59.99,\"stock\":10,\"images\":[\"http://localhost:9000/ai-ecommerce/products/others/games/ea-battlefield-6.png?X-Amz-Algorithm=AWS4-HMAC-SHA256&X-Amz-Content-Sha256=UNSIGNED-PAYLOAD&X-Amz-Credential=minioadmin%2F20260604%2Fus-east-1%2Fs3%2Faws4_request&X-Amz-Date=20260604T153226Z&X-Amz-Expires=604800&X-Amz-Signature=65f7b5081d6450fbb3e8191b818186e9a64ae7d49241da3cd66d58631ef63380&X-Amz-SignedHeaders=host&x-amz-checksum-mode=ENABLED&x-id=GetObject\"],\"specs\":{},\"description\":\"\",\"rating\":0,\"reviewCount\":0,\"isActive\":true,\"createdAt\":\"2026-06-04T15:27:53.515Z\",\"updatedAt\":\"2026-06-04T15:27:53.515Z\",\"brand\":\"EA\",\"model\":\"Battlefield 6\",\"category\":\"Games\"},{\"id\":\"afd6409c-7268-44ff-9ef5-13feced4f9fb\",\"catalogId\":\"02d848b7-d9d5-4940-8795-b266bf8285d2\",\"otherBrandId\":null,\"otherSubcategoryId\":null,\"name\":\"Apple Watch SE 2nd Gen (GPS) 40mm Midnight\",\"slug\":\"apple-watch-se-2nd-gen-midnight-40mm\",\"condition\":\"Pristine\",\"storage\":\"\",\"price\":174.99,\"comparePrice\":259,\"stock\":10,\"images\":[\"http://localhost:9000/ai-ecommerce/products/others/smart_watches/apple-watch-se-2nd-gen-midnight-40mm.png?X-Amz-Algorithm=AWS4-HMAC-SHA256&X-Amz-Content-Sha256=UNSIGNED-PAYLOAD&X-Amz-Credential=minioadmin%2F20260604%2Fus-east-1%2Fs3%2Faws4_request&X-Amz-Date=20260604T153226Z&X-Amz-Expires=604800&X-Amz-Signature=f85a8c03d8738a9179de1c7328ff06c9abcb01e0e90cdff8b6a07672eec37601&X-Amz-SignedHeaders=host&x-amz-checksum-mode=ENABLED&x-id=GetObject\"],\"specs\":{},\"description\":\"\",\"rating\":0,\"reviewCount\":0,\"isActive\":true,\"createdAt\":\"2026-06-04T15:27:53.439Z\",\"updatedAt\":\"2026-06-04T15:27:53.439Z\",\"brand\":\"Apple\",\"model\":\"Apple Watch SE 2nd Gen (GPS) 40mm Midnight\",\"category\":\"Smartwatches\"}],\"total\":128,\"page\":1,\"limit\":5,\"pages\":26}"